sobel_fpga.sim/sim_1/behav/xsim/tb_sobel.vcd
$date
   Fri Oct 24 16:31:08 2025
$end

$version
  2025.1.0
  $dumpfile ("tb_sobel.vcd") 
$end

$timescale
  1ps
$end

$scope module tb_sobel $end
$var reg 1 ! clk $end
$var reg 1 " rstn $end
$var reg 8 # in_pixel [7:0] $end
$var reg 1 $ in_valid $end
$var wire 1 % in_ready $end
$var wire 8 & out_pixel [7:0] $end
$var wire 1 ' out_valid $end
$var integer 32 ( i [31:0] $end
$var integer 32 ) f [31:0] $end
$scope module dut $end
$var wire 1 * clk $end
$var wire 1 + rstn $end
$var wire 8 , in_pixel [7:0] $end
$var wire 1 - in_valid $end
$var wire 1 % in_ready $end
$var wire 8 & out_pixel [7:0] $end
$var wire 1 ' out_valid $end
$var wire 1 . out_ready $end
$var wire 8 / p00 [7:0] $end
$var wire 8 0 p01 [7:0] $end
$var wire 8 1 p02 [7:0] $end
$var wire 8 2 p10 [7:0] $end
$var wire 8 3 p11 [7:0] $end
$var wire 8 4 p12 [7:0] $end
$var wire 8 5 p20 [7:0] $end
$var wire 8 6 p21 [7:0] $end
$var wire 8 7 p22 [7:0] $end
$var wire 1 8 center_valid $end
$var wire 16 9 gx [15:0] $end
$var wire 16 : gy [15:0] $end
$scope module lb $end
$var wire 1 * clk $end
$var wire 1 + rstn $end
$var wire 8 , in_pixel [7:0] $end
$var wire 1 - in_valid $end
$var reg 1 ; in_ready $end
$var wire 8 / p00 [7:0] $end
$var wire 8 0 p01 [7:0] $end
$var wire 8 1 p02 [7:0] $end
$var wire 8 2 p10 [7:0] $end
$var wire 8 3 p11 [7:0] $end
$var wire 8 4 p12 [7:0] $end
$var wire 8 5 p20 [7:0] $end
$var wire 8 6 p21 [7:0] $end
$var wire 8 7 p22 [7:0] $end
$var reg 1 < out_valid $end
$var integer 32 = write_ptr [31:0] $end
$var integer 32 > i [31:0] $end
$var reg 8 ? shift0 [7:0] $end
$var reg 8 @ shift1 [7:0] $end
$var reg 8 A shift2 [7:0] $end
$upscope $end
$scope module sc $end
$var wire 1 * clk $end
$var wire 1 + rstn $end
$var wire 8 / p00 [7:0] $end
$var wire 8 0 p01 [7:0] $end
$var wire 8 1 p02 [7:0] $end
$var wire 8 2 p10 [7:0] $end
$var wire 8 3 p11 [7:0] $end
$var wire 8 4 p12 [7:0] $end
$var wire 8 5 p20 [7:0] $end
$var wire 8 6 p21 [7:0] $end
$var wire 8 7 p22 [7:0] $end
$var reg 16 B gx [15:0] $end
$var reg 16 C gy [15:0] $end
$upscope $end
$scope module mt $end
$var wire 1 * clk $end
$var wire 1 + rstn $end
$var wire 16 9 gx [15:0] $end
$var wire 16 : gy [15:0] $end
$var wire 1 8 in_valid $end
$var reg 8 D edge_pixel [7:0] $end
$var reg 1 E edge_valid $end
$var reg 16 F abs_gx [15:0] $end
$var reg 16 G abs_gy [15:0] $end
$var reg 16 H mag [15:0] $end
$upscope $end
$upscope $end
$scope begin Block57_7 $end
$var reg 32 I wmemtrnsf_fd [31:0] $end
$scope begin Block57_8 $end
$var reg 32 J i1 [31:0] $end
$upscope $end
$upscope $end
$upscope $end
$enddefinitions $end

#0
$dumpvars
0!
0"
b0 #
0$
x%
bx &
x'
bx (
bx )
0*
0+
b0 ,
0-
1.
b0 /
b0 0
b0 1
b0 2
b0 3
b0 4
b0 5
b0 6
b0 7
08
bx 9
bx :
0;
0<
b0 =
b10000 >
bx ?
bx @
bx A
bx B
bx C
bx D
xE
bx F
bx G
bx H
b0 I
b0 J
$end

#5000
1!
b0 &
0'
1*
b0 9
b0 :
1;
b0 B
b0 C
b0 D
0E
b0 F
b0 G
b0 H

#10000
0!
1%
0*

#15000
1!
1*

#20000
0!
0*

#25000
1!
1*

#30000
0!
0*

#35000
1!
1*

#40000
0!
0*

#45000
1!
1*

#50000
0!
0*

#55000
1!
1*

#60000
0!
0*

#65000
1!
1*

#70000
0!
0*

#75000
1!
1*

#80000
0!
0*

#85000
1!
1*

#90000
0!
0*

#95000
1!
1*

#100000
0!
1"
0*
1+

#105000
1!
1*

#110000
0!
0*

#115000
1!
1*

#120000
0!
1$
b0 (
0*
1-

#125000
1!
b10000 #
b1 (
1*
b10000 ,
b10000 0
b1 =

#130000
0!
0*

#135000
1!
b100000 #
b10 (
1*
b100000 ,
b100000 0
b10000 1
b1111111111100000 :
b10 =
b1111111111100000 C

#140000
0!
0*

#145000
1!
b110000 #
b11 (
1*
b110000 ,
b110000 0
b100000 1
b10000 9
b1111111110110000 :
b11 =
b10000 B
b1111111110110000 C

#150000
0!
0*

#155000
1!
b1000000 #
b100 (
1*
b1000000 ,
b1000000 0
b110000 1
b100000 9
b1111111110000000 :
b100 =
b100000 B
b1111111110000000 C

#160000
0!
0*

#165000
1!
b1010000 #
b101 (
1*
b1010000 ,
b1010000 0
b1000000 1
b110000 9
b1111111101010000 :
b101 =
b110000 B
b1111111101010000 C

#170000
0!
0*

#175000
1!
b1100000 #
b110 (
1*
b1100000 ,
b1100000 0
b1010000 1
b1000000 9
b1111111100100000 :
b110 =
b1000000 B
b1111111100100000 C

#180000
0!
0*

#185000
1!
b1110000 #
b111 (
1*
b1110000 ,
b1110000 0
b1100000 1
b1010000 9
b1111111011110000 :
b111 =
b1010000 B
b1111111011110000 C

#190000
0!
0*

#195000
1!
b10000 #
b1000 (
1*
b10000 ,
b10000 0
b1110000 1
b1100000 9
b1111111011000000 :
b1000 =
b1100000 B
b1111111011000000 C

#200000
0!
0*

#205000
1!
b100000 #
b1001 (
1*
b100000 ,
b100000 0
b10000 1
b1110000 9
b1111111101110000 :
b1001 =
b1110000 B
b1111111101110000 C

#210000
0!
0*

#215000
1!
b110000 #
b1010 (
1*
b110000 ,
b110000 0
b100000 1
b10000 9
b1111111110110000 :
b1010 =
b10000 B
b1111111110110000 C

#220000
0!
0*

#225000
1!
b1000000 #
b1011 (
1*
b1000000 ,
b1000000 0
b110000 1
b100000 9
b1111111110000000 :
b1011 =
b100000 B
b1111111110000000 C

#230000
0!
0*

#235000
1!
b1010000 #
b1100 (
1*
b1010000 ,
b1010000 0
b1000000 1
b110000 9
b1111111101010000 :
b1100 =
b110000 B
b1111111101010000 C

#240000
0!
0*

#245000
1!
b1100000 #
b1101 (
1*
b1100000 ,
b1100000 0
b1010000 1
b1000000 9
b1111111100100000 :
b1101 =
b1000000 B
b1111111100100000 C

#250000
0!
0*

#255000
1!
b1110000 #
b1110 (
1*
b1110000 ,
b1110000 0
b1100000 1
b1010000 9
b1111111011110000 :
b1110 =
b1010000 B
b1111111011110000 C

#260000
0!
0*

#265000
1!
b10000000 #
b1111 (
1*
b10000000 ,
b10000000 0
b1110000 1
b1100000 9
b1111111011000000 :
b1111 =
b1100000 B
b1111111011000000 C

#270000
0!
0*

#275000
1!
b100000 #
b10000 (
1*
b100000 ,
b10000 /
b0 0
b0 1
18
b1110000 9
b1111111010010000 :
1<
b0 =
b1110000 B
b1111111010010000 C

#280000
0!
0*

#285000
1!
b110000 #
1'
b10001 (
1*
b110000 ,
b100000 /
b110000 0
b10000 3
08
b1111111111110000 9
b1111111111110000 :
0<
b1 =
b1111111111110000 B
b1111111111110000 C
1E
b1110000 F
b101110000 G

#290000
0!
0*

#295000
1!
b1000000 #
0'
b10010 (
1*
b1000000 ,
b110000 /
b1000000 0
b110000 1
b100000 3
b10000 4
b1111111111100000 9
b1111111110000000 :
b10 =
b1111111111100000 B
b1111111110000000 C
0E

#300000
0!
0*

#305000
1!
b1010000 #
b10011 (
1*
b1010000 ,
b1000000 /
b1010000 0
b1000000 1
b110000 3
b100000 4
b100000 9
b1111111100100000 :
b11 =
b100000 B
b1111111100100000 C

#310000
0!
0*

#315000
1!
b1100000 #
b10100 (
1*
b1100000 ,
b1010000 /
b1100000 0
b1010000 1
b1000000 3
b110000 4
b1000000 9
b1111111011100000 :
b100 =
b1000000 B
b1111111011100000 C

#320000
0!
0*

#325000
1!
b1110000 #
b10101 (
1*
b1110000 ,
b1100000 /
b1110000 0
b1100000 1
b1010000 3
b1000000 4
b1100000 9
b1111111010100000 :
b101 =
b1100000 B
b1111111010100000 C

#330000
0!
0*

#335000
1!
b10000000 #
b10110 (
1*
b10000000 ,
b1110000 /
b10000000 0
b1110000 1
b1100000 3
b1010000 4
b10000000 9
b1111111001100000 :
b110 =
b10000000 B
b1111111001100000 C

#340000
0!
0*

#345000
1!
b10010000 #
b10111 (
1*
b10010000 ,
b10000 /
b10010000 0
b10000000 1
b1110000 3
b1100000 4
b10100000 9
b1111111000100000 :
b111 =
b10100000 B
b1111111000100000 C

#350000
0!
0*

#355000
1!
b110000 #
b11000 (
1*
b110000 ,
b100000 /
b110000 0
b10010000 1
b10000 3
b1110000 4
b100110000 9
b1111111001010000 :
b1000 =
b100110000 B
b1111111001010000 C

#360000
0!
0*

#365000
1!
b1000000 #
b11001 (
1*
b1000000 ,
b110000 /
b1000000 0
b110000 1
b100000 3
b10000 4
b101010000 9
b1111111011110000 :
b1001 =
b101010000 B
b1111111011110000 C

#370000
0!
0*

#375000
1!
b1010000 #
b11010 (
1*
b1010000 ,
b1000000 /
b1010000 0
b1000000 1
b110000 3
b100000 4
b100000 9
b1111111100100000 :
b1010 =
b100000 B
b1111111100100000 C

#380000
0!
0*

#385000
1!
b1100000 #
b11011 (
1*
b1100000 ,
b1010000 /
b1100000 0
b1010000 1
b1000000 3
b110000 4
b1000000 9
b1111111011100000 :
b1011 =
b1000000 B
b1111111011100000 C

#390000
0!
0*

#395000
1!
b1110000 #
b11100 (
1*
b1110000 ,
b1100000 /
b1110000 0
b1100000 1
b1010000 3
b1000000 4
b1100000 9
b1111111010100000 :
b1100 =
b1100000 B
b1111111010100000 C

#400000
0!
0*

#405000
1!
b10000000 #
b11101 (
1*
b10000000 ,
b1110000 /
b10000000 0
b1110000 1
b1100000 3
b1010000 4
b10000000 9
b1111111001100000 :
b1101 =
b10000000 B
b1111111001100000 C

#410000
0!
0*

#415000
1!
b10010000 #
b11110 (
1*
b10010000 ,
b10000000 /
b10010000 0
b10000000 1
b1110000 3
b1100000 4
b10100000 9
b1111111000100000 :
b1110 =
b10100000 B
b1111111000100000 C

#420000
0!
0*

#425000
1!
b10100000 #
b11111 (
1*
b10100000 ,
b100000 /
b10100000 0
b10010000 1
b10000000 3
b1110000 4
b11000000 9
b1111110111100000 :
b1111 =
b11000000 B
b1111110111100000 C

#430000
0!
0*

#435000
1!
b1000000 #
b100000 (
1*
b1000000 ,
b110000 /
b0 0
b0 1
b10000 2
b0 3
b0 4
18
b101010000 9
b1111111000010000 :
1<
b0 =
b101010000 B
b1111111000010000 C

#440000
0!
0*

#445000
1!
b1010000 #
1'
b100001 (
1*
b1010000 ,
b1000000 /
b1010000 0
b100000 2
b110000 3
b10000 6
08
b1111111110110000 9
b1111111111010000 :
0<
b1 =
b1111111110110000 B
b1111111111010000 C
1E
b101010000 F
b111110000 G
b111100000 H

#450000
0!
0*

#455000
1!
b1100000 #
0'
b100010 (
1*
b1100000 ,
b1010000 /
b1100000 0
b1010000 1
b110000 2
b1000000 3
b110000 4
b100000 6
b10000 7
b1111111110000000 9
b1111111101000000 :
b10 =
b1111111110000000 B
b1111111101000000 C
0E

#460000
0!
0*

#465000
1!
b1110000 #
b100011 (
1*
b1110000 ,
b1100000 /
b1110000 0
b1100000 1
b1000000 2
b1010000 3
b1000000 4
b110000 6
b100000 7
b10000 9
b1111111011110000 :
b11 =
b10000 B
b1111111011110000 C

#470000
0!
0*

#475000
1!
b10000000 #
b100100 (
1*
b10000000 ,
b1110000 /
b10000000 0
b1110000 1
b1010000 2
b1100000 3
b1010000 4
b1000000 6
b110000 7
b100000 9
b1111111011100000 :
b100 =
b100000 B
b1111111011100000 C

#480000
0!
0*

#485000
1!
b10010000 #
b100101 (
1*
b10010000 ,
b10000000 /
b10010000 0
b10000000 1
b1100000 2
b1110000 3
b1100000 4
b1010000 6
b1000000 7
b110000 9
b1111111011010000 :
b101 =
b110000 B
b1111111011010000 C

#490000
0!
0*

#495000
1!
b10100000 #
b100110 (
1*
b10100000 ,
b10010000 /
b10100000 0
b10010000 1
b1110000 2
b10000000 3
b1110000 4
b1100000 6
b1010000 7
b1000000 9
b1111111011000000 :
b110 =
b1000000 B
b1111111011000000 C

#500000
0!
0*

#505000
1!
b10110000 #
b100111 (
1*
b10110000 ,
b110000 /
b10110000 0
b10100000 1
b10000 2
b10010000 3
b10000000 4
b1110000 6
b1100000 7
b1010000 9
b1111111010110000 :
b111 =
b1010000 B
b1111111010110000 C

#510000
0!
0*

#515000
1!
b1010000 #
b101000 (
1*
b1010000 ,
b1000000 /
b1010000 0
b10110000 1
b100000 2
b110000 3
b10010000 4
b10000 6
b1110000 7
b110110000 9
b1111111100010000 :
b1000 =
b110110000 B
b1111111100010000 C

#520000
0!
0*

#525000
1!
b1100000 #
b101001 (
1*
b1100000 ,
b1010000 /
b1100000 0
b1010000 1
b110000 2
b1000000 3
b110000 4
b100000 6
b10000 7
b111000000 9
b1111111100000000 :
b1001 =
b111000000 B
b1111111100000000 C

#530000
0!
0*

#535000
1!
b1110000 #
b101010 (
1*
b1110000 ,
b1100000 /
b1110000 0
b1100000 1
b1000000 2
b1010000 3
b1000000 4
b110000 6
b100000 7
b10000 9
b1111111011110000 :
b1010 =
b10000 B
b1111111011110000 C

#540000
0!
0*

#545000
1!
b10000000 #
b101011 (
1*
b10000000 ,
b1110000 /
b10000000 0
b1110000 1
b1010000 2
b1100000 3
b1010000 4
b1000000 6
b110000 7
b100000 9
b1111111011100000 :
b1011 =
b100000 B
b1111111011100000 C

#550000
0!
0*

#555000
1!
b10010000 #
b101100 (
1*
b10010000 ,
b10000000 /
b10010000 0
b10000000 1
b1100000 2
b1110000 3
b1100000 4
b1010000 6
b1000000 7
b110000 9
b1111111011010000 :
b1100 =
b110000 B
b1111111011010000 C

#560000
0!
0*

#565000
1!
b10100000 #
b101101 (
1*
b10100000 ,
b10010000 /
b10100000 0
b10010000 1
b1110000 2
b10000000 3
b1110000 4
b1100000 6
b1010000 7
b1000000 9
b1111111011000000 :
b1101 =
b1000000 B
b1111111011000000 C

#570000
0!
0*

#575000
1!
b10110000 #
b101110 (
1*
b10110000 ,
b10100000 /
b10110000 0
b10100000 1
b10000000 2
b10010000 3
b10000000 4
b1110000 6
b1100000 7
b1010000 9
b1111111010110000 :
b1110 =
b1010000 B
b1111111010110000 C

#580000
0!
0*

#585000
1!
b11000000 #
b101111 (
1*
b11000000 ,
b1000000 /
b11000000 0
b10110000 1
b100000 2
b10100000 3
b10010000 4
b10000000 6
b1110000 7
b1100000 9
b1111111010100000 :
b1111 =
b1100000 B
b1111111010100000 C

#590000
0!
0*

#595000
1!
b1100000 #
b110000 (
1*
b1100000 ,
b1010000 /
b0 0
b0 1
b110000 2
b0 3
b0 4
b10000 5
b0 6
b0 7
18
b111000000 9
b1111111100000000 :
1<
b0 =
b111000000 B
b1111111100000000 C

#600000
0!
0*

#605000
1!
b1110000 #
b11111111 &
1'
b110001 (
1*
b1110000 ,
b1100000 /
b1110000 0
b1000000 2
b1010000 3
b100000 5
b110000 6
08
b1111111101000000 9
b1111111111000000 :
0<
b1 =
b1111111101000000 B
b1111111111000000 C
b11111111 D
1E
b111000000 F
b100000000 G
b1101000000 H

#610000
0!
0*

#615000
1!
b10000000 #
0'
b110010 (
1*
b10000000 ,
b1110000 /
b10000000 0
b1110000 1
b1010000 2
b1100000 3
b1010000 4
b110000 5
b1000000 6
b110000 7
b1111111100000000 9
b1111111101000000 :
b10 =
b1111111100000000 B
b1111111101000000 C
0E

#620000
0!
0*

#625000
1!
b10010000 #
b110011 (
1*
b10010000 ,
b10000000 /
b10010000 0
b10000000 1
b1100000 2
b1110000 3
b1100000 4
b1000000 5
b1010000 6
b1000000 7
b0 9
b1111111100000000 :
b11 =
b0 B
b1111111100000000 C

#630000
0!
0*

#635000
1!
b10100000 #
b110100 (
1*
b10100000 ,
b10010000 /
b10100000 0
b10010000 1
b1110000 2
b10000000 3
b1110000 4
b1010000 5
b1100000 6
b1010000 7
b100 =

#640000
0!
0*

#645000
1!
b10110000 #
b110101 (
1*
b10110000 ,
b10100000 /
b10110000 0
b10100000 1
b10000000 2
b10010000 3
b10000000 4
b1100000 5
b1110000 6
b1100000 7
b101 =

#650000
0!
0*

#655000
1!
b11000000 #
b110110 (
1*
b11000000 ,
b10110000 /
b11000000 0
b10110000 1
b10010000 2
b10100000 3
b10010000 4
b1110000 5
b10000000 6
b1110000 7
b110 =

#660000
0!
0*

#665000
1!
b11010000 #
b110111 (
1*
b11010000 ,
b1010000 /
b11010000 0
b11000000 1
b110000 2
b10110000 3
b10100000 4
b10000 5
b10010000 6
b10000000 7
b111 =

#670000
0!
0*

#675000
1!
b1110000 #
b111000 (
1*
b1110000 ,
b1100000 /
b1110000 0
b11010000 1
b1000000 2
b1010000 3
b10110000 4
b100000 5
b110000 6
b10010000 7
b111000000 9
b1000 =
b111000000 B

#680000
0!
0*

#685000
1!
b10000000 #
b111001 (
1*
b10000000 ,
b1110000 /
b10000000 0
b1110000 1
b1010000 2
b1100000 3
b1010000 4
b110000 5
b1000000 6
b110000 7
b1001 =

#690000
0!
0*

#695000
1!
b10010000 #
b111010 (
1*
b10010000 ,
b10000000 /
b10010000 0
b10000000 1
b1100000 2
b1110000 3
b1100000 4
b1000000 5
b1010000 6
b1000000 7
b0 9
b1010 =
b0 B

#700000
0!
0*

#705000
1!
b10100000 #
b111011 (
1*
b10100000 ,
b10010000 /
b10100000 0
b10010000 1
b1110000 2
b10000000 3
b1110000 4
b1010000 5
b1100000 6
b1010000 7
b1011 =

#710000
0!
0*

#715000
1!
b10110000 #
b111100 (
1*
b10110000 ,
b10100000 /
b10110000 0
b10100000 1
b10000000 2
b10010000 3
b10000000 4
b1100000 5
b1110000 6
b1100000 7
b1100 =

#720000
0!
0*

#725000
1!
b11000000 #
b111101 (
1*
b11000000 ,
b10110000 /
b11000000 0
b10110000 1
b10010000 2
b10100000 3
b10010000 4
b1110000 5
b10000000 6
b1110000 7
b1101 =

#730000
0!
0*

#735000
1!
b11010000 #
b111110 (
1*
b11010000 ,
b11000000 /
b11010000 0
b11000000 1
b10100000 2
b10110000 3
b10100000 4
b10000000 5
b10010000 6
b10000000 7
b1110 =

#740000
0!
0*

#745000
1!
b11100000 #
b111111 (
1*
b11100000 ,
b1100000 /
b11100000 0
b11010000 1
b1000000 2
b11000000 3
b10110000 4
b100000 5
b10100000 6
b10010000 7
b1111 =

#750000
0!
0*

#755000
1!
bx #
b1000000 (
1*
bx ,
b1110000 /
b0 0
b0 1
b1010000 2
b0 3
b0 4
b110000 5
b0 6
b0 7
18
b111000000 9
1<
b0 =
b111000000 B

#760000
0!
0*

#765000
1!
1'
b1000001 (
1*
b10000000 /
bx 0
b1100000 2
b1110000 3
b1000000 5
b1010000 6
08
b1111111011000000 9
b1111111111000000 :
0<
b1 =
b1111111011000000 B
b1111111111000000 C
1E
b1011000000 H

#770000
0!
0*

#775000
1!
0'
b1000010 (
1*
b10010000 /
bx 1
b1110000 2
b10000000 3
b1110000 4
b1010000 5
b1100000 6
b1010000 7
b1111111010000000 9
bx :
b10 =
b1111111010000000 B
bx C
0E

#780000
0!
0*

#785000
1!
b1000011 (
1*
b10100000 /
b10000000 2
b10010000 3
b10000000 4
b1100000 5
b1110000 6
b1100000 7
bx 9
b11 =
bx B

#790000
0!
0*

#795000
1!
b1000100 (
1*
b10110000 /
b10010000 2
b10100000 3
b10010000 4
b1110000 5
b10000000 6
b1110000 7
b100 =

#800000
0!
0*

#805000
1!
b1000101 (
1*
b11000000 /
b10100000 2
b10110000 3
b10100000 4
b10000000 5
b10010000 6
b10000000 7
b101 =

#810000
0!
0*

#815000
1!
b1000110 (
1*
b11010000 /
b10110000 2
b11000000 3
b10110000 4
b10010000 5
b10100000 6
b10010000 7
b110 =

#820000
0!
0*

#825000
1!
b1000111 (
1*
b1110000 /
b1010000 2
b11010000 3
b11000000 4
b110000 5
b10110000 6
b10100000 7
b111 =

#830000
0!
0*

#835000
1!
b1001000 (
1*
b10000000 /
b1100000 2
b1110000 3
b11010000 4
b1000000 5
b1010000 6
b10110000 7
b1000 =

#840000
0!
0*

#845000
1!
b1001001 (
1*
b10010000 /
b1110000 2
b10000000 3
b1110000 4
b1010000 5
b1100000 6
b1010000 7
b1001 =

#850000
0!
0*

#855000
1!
b1001010 (
1*
b10100000 /
b10000000 2
b10010000 3
b10000000 4
b1100000 5
b1110000 6
b1100000 7
b1010 =

#860000
0!
0*

#865000
1!
b1001011 (
1*
b10110000 /
b10010000 2
b10100000 3
b10010000 4
b1110000 5
b10000000 6
b1110000 7
b1011 =

#870000
0!
0*

#875000
1!
b1001100 (
1*
b11000000 /
b10100000 2
b10110000 3
b10100000 4
b10000000 5
b10010000 6
b10000000 7
b1100 =

#880000
0!
0*

#885000
1!
b1001101 (
1*
b11010000 /
b10110000 2
b11000000 3
b10110000 4
b10010000 5
b10100000 6
b10010000 7
b1101 =

#890000
0!
0*

#895000
1!
b1001110 (
1*
b11100000 /
b11000000 2
b11010000 3
b11000000 4
b10100000 5
b10110000 6
b10100000 7
b1110 =

#900000
0!
0*

#905000
1!
b1001111 (
1*
bx /
b1100000 2
b11100000 3
b11010000 4
b1000000 5
b11000000 6
b10110000 7
b1111 =

#910000
0!
0*

#915000
1!
b1010000 (
1*
b0 0
b0 1
b1110000 2
b0 3
b0 4
b1010000 5
b0 6
b0 7
18
1<
b0 =

#920000
0!
0*

#925000
1!
1'
b1010001 (
1*
bx 0
b10000000 2
bx 3
b1100000 5
b1110000 6
08
0<
b1 =
1E
bx F
bx G

#930000
0!
0*

#935000
1!
0'
b1010010 (
1*
bx 1
b10010000 2
bx 4
b1110000 5
b10000000 6
b1110000 7
b10 =
0E

#940000
0!
0*

#945000
1!
b1010011 (
1*
b10100000 2
b10000000 5
b10010000 6
b10000000 7
b11 =

#950000
0!
0*

#955000
1!
b1010100 (
1*
b10110000 2
b10010000 5
b10100000 6
b10010000 7
b100 =

#960000
0!
0*

#965000
1!
b1010101 (
1*
b11000000 2
b10100000 5
b10110000 6
b10100000 7
b101 =

#970000
0!
0*

#975000
1!
b1010110 (
1*
b11010000 2
b10110000 5
b11000000 6
b10110000 7
b110 =

#980000
0!
0*

#985000
1!
b1010111 (
1*
b1110000 2
b1010000 5
b11010000 6
b11000000 7
b111 =

#990000
0!
0*

#995000
1!
b1011000 (
1*
b10000000 2
b1100000 5
b1110000 6
b11010000 7
b1000 =
